%YAML 1.1
%TAG !u! tag:unity3d.com,2011:
--- !u!114 &11400000
MonoBehaviour:
  m_ObjectHideFlags: 0
  m_PrefabParentObject: {fileID: 0}
  m_PrefabInternal: {fileID: 0}
  m_GameObject: {fileID: 0}
  m_Enabled: 1
  m_EditorHideFlags: 0
  m_Script: {fileID: 11500000, guid: c86eab87669ca2a4d91e89257f47e18c, type: 3}
  m_Name: Wooden Helmet
  m_EditorClassIdentifier: 
  Guid: 
  Name: Wooden Helmet
  ItemType: 1
  Description: A Wooden Helmet
  Icon: {fileID: 21300000, guid: 365a9dd14d5dcd742bebdde62d552a4e, type: 3}
  IsPerishable: 0
  EffectTiming: 0
  TimeInterval: 0
  EffectRepeatingAmount: 0
  CraftingRequirements: []
  ItemsToSpawn: []
  StatsEffects:
  - StatsChange: 10
    StatsToEffect: 5
