%YAML 1.1
%TAG !u! tag:unity3d.com,2011:
--- !u!114 &11400000
MonoBehaviour:
  m_ObjectHideFlags: 0
  m_PrefabParentObject: {fileID: 0}
  m_PrefabInternal: {fileID: 0}
  m_GameObject: {fileID: 0}
  m_Enabled: 1
  m_EditorHideFlags: 0
  m_Script: {fileID: 11500000, guid: d1afaf68b5bdb854a8e5f853eb8aacda, type: 3}
  m_Name: Empty Health Potion
  m_EditorClassIdentifier: 
  Guid: 
  Name: Empty Health Potion
  ItemType: 8
  Description: Empty health potion
  Icon: {fileID: 21300000, guid: b23fbe5cc3bdda346b11f222fe65862d, type: 3}
  IsPerishable: 0
  ShouldItemBeUsed: 1
  EffectTiming: 1
  TimeInterval: 0
  EffectRepeatingAmount: 0
  CraftingRequirements: []
  ItemsToSpawn: []
  StatsEffects: []
  ItemAfterUse: {fileID: 0}
  IsThisAnEmptyItem: 1
